{
  "applets": {
    "irs_monitor": {
      "map": {
        "chart_type": "map",
        "bin_by": "location.selection.id",
        "aggregation_names": [
          "structures sprayed %",
          "structures sprayed"
        ],
        "property_layers": [
          {"property": "risk", "label": "Risk"},
          {"property": "NumStrct", "label": "Number of structures"}
        ],
        "response_point_fields": [
          "recorded_on"
        ]
      },
      "table": {
        "chart_type": "table",
        "bin_by": "location.selection.name",
        "aggregation_names": [
          "structures sprayed",
          "structures sprayed %"
        ],
        "property_layers": [
          {"property": "Fnl_l_1", "label": "Name"}
        ]
      },
      "charts": [
        {
          "id": "structures_found",
          "style": {
            "height_constraint": "none",
            "width_constraint": "half"
          },
          "options": {
            "layout": {
              "showlegend": true,
              "title": "Structures found %",
              "yaxis": {
                "title": "% structures found"
              },
              "xaxis": {
                "title": "Period commencing"
              }
            },
            "chart_type": "line",
            "time_series": true,
            "bin_by": "recorded_on",
            "geographic_level_refactor_this_key_name": "location.selection.id",
            "multi_series": [
              {
                "aggregation_name": "structures found %"
              }
            ]
          }
        },
        {
          "id": "structures_sprayed",
          "style": {
            "height_constraint": "none",
            "width_constraint": "half"
          },
          "options": {
            "layout": {
              "showlegend": true,
              "title": "Structures sprayed %",
              "yaxis": {
                "title": "% structures sprayed"
              },
              "xaxis": {
                "title": "Period commencing"
              }
            },
            "chart_type": "line",
            "time_series": true,
            "bin_by": "recorded_on",
            "geographic_level_refactor_this_key_name": "location.selection.id",
            "multi_series": [
              {
                "aggregation_name": "structures sprayed %"
              }
            ]
          }
        },
        {
          "id": "distribution_sprayed_versus_visited",
          "style": {
            "height_constraint": "none",
            "width_constraint": "half"
          },
          "options": {
            "layout": {
              "showlegend": true,
              "title": "Distribution of locked vs sprayed of structures visited",
              "yaxis": {
                "title": "%"
              },
              "xaxis": {
                "title": "Period commencing"
              }
            },
            "chart_type": "line",
            "time_series": true,
            "bin_by": "recorded_on",
            "geographic_level_refactor_this_key_name": "location.selection.id",
            "multi_series": [
              {
                "aggregation_name": "structures sprayed %"
              },
              {
                "aggregation_name": "structures found %"
              }
            ]
          }
        },
        {
          "id": "proportion_of_population_covered_of_structures_visited",
          "style": {
            "height_constraint": "none",
            "width_constraint": "half"
          },
          "options": {
            "layout": {
              "showlegend": true,
              "title": "Proportion of population covered of structures visited",
              "yaxis": {
                "title": "%"
              },
              "xaxis": {
                "title": "Period commencing"
              }
            },
            "chart_type": "line",
            "time_series": true,
            "bin_by": "recorded_on",
            "geographic_level_refactor_this_key_name": "location.selection.id",
            "multi_series": [
              {
                "aggregation_name": "structures found %"
              }
            ]
          }
        },
        {
          "id": "distribution_of_locked_versus_sprayed_per_con",
          "style": {
            "height_constraint": "none",
            "width_constraint": "full"
          },
          "options": {
            "layout": {
              "showlegend": true,
              "title": "Locked % vs. sprayed % per consituency",
              "yaxis": {
                "title": "%"
              },
              "xaxis": {
                "title": "Constituencies"
              },
              "barmode": "stack"
            },
            "chart_type": "bar",
            "bin_by": "location.selection.name",
            "geographic_level_refactor_this_key_name": "location.selection.id",
            "multi_series": [
              {
                "aggregation_name": "structures sprayed %",
                "colour": "green"
              },
              {
                "aggregation_name": "sprayable structures not sprayed %",
                "colour": "red"
              }
            ]
          }
        }
      ]
    },
    "irs_plan": {
      "table_output": [
        {"display_name": "Locality name", "source_field": "Fnl_l_1"},
        {"display_name": "Number of structures enumerated", "source_field": "NumStrct"},
        {"display_name": "Predicted risk", "source_field": "risk"}
      ]
    },
    "irs_record_point": {
      "metadata": {
        "show": true,
        "optional_fields": ["team_name"]
      }
    },
    "irs_tasker": {},
    "meta": {},
    "debug": {}
  },
  "map_focus": {
    "centre": {
      "lat": -26.502530898533244,
      "lng": 31.528015136718754
    },
    "zoom": 7.5
  },
  "instance": {
    "title": "Swaziland IRS Tool",
    "location_name": "Swaziland",
    "slug": "swz"
  },
  "spatial_hierarchy": {
    "data_version": 2,
    "markers": {
      "planning_level_name": "localities",
      "record_location_selection_level_name": "localities",
      "denominator_fields": {
        "number_of_structures": "NumStrct"
      }
    },
    "levels": [
      {
        "group_by_field": "Final_regi",
        "field_name": "AggUniCode",
        "display_field_name": "Final_loca",
        "name": "localities"
      }
    ]
  }
}
